{
  "title": "Change application key",
  "rules": [
    {
      "description": "Change application to command+control+shift if pressed with other keys, return_or_enter if alone",
      "manipulators": [
        {
          "type": "basic",
          "from": {
            "key_code": "application",
            "modifiers": {
              "optional": ["any"]
            }
          },
          "to": [
            {
              "key_code": "right_shift",
              "modifiers": ["right_command", "right_control"],
              "lazy": true
            }
          ],
          "to_if_alone": [
            {
              "key_code": "return_or_enter"
            }
          ]
        }
      ]
    },
    {
      "description": "Change application to command+control+shift if pressed with other keys, backslash if alone",
      "manipulators": [
        {
          "type": "basic",
          "from": {
            "key_code": "application",
            "modifiers": {
              "optional": ["any"]
            }
          },
          "to": [
            {
              "key_code": "right_shift",
              "modifiers": ["right_command", "right_control"],
              "lazy": true
            }
          ],
          "to_if_alone": [
            {
              "key_code": "backslash"
            }
          ]
        }
      ]
    },
    {
      "description": "Change application to command+control+shift if pressed with other keys, f19 if alone",
      "manipulators": [
        {
          "type": "basic",
          "from": {
            "key_code": "application",
            "modifiers": {
              "optional": ["any"]
            }
          },
          "to": [
            {
              "key_code": "right_shift",
              "modifiers": ["right_command", "right_control"],
              "lazy": true
            }
          ],
          "to_if_alone": [
            {
              "key_code": "f19"
            }
          ]
        }
      ]
    },
    {
      "description": "Change application to command+control+shift if pressed with other keys",
      "manipulators": [
        {
          "type": "basic",
          "from": {
            "key_code": "application",
            "modifiers": {
              "optional": ["any"]
            }
          },
          "to": [
            {
              "key_code": "right_shift",
              "modifiers": ["right_command", "right_control"],
              "lazy": true
            }
          ],
          "to_if_alone": [
            {
              "key_code": "application"
            }
          ]
        }
      ]
    }
  ]
}
